Initializing
a: -30.000000
a: -29.250000
a: -28.500000
a: -27.750000
a: -27.000000
a: -26.250000
a: -25.500000
a: -24.750000
a: -24.000000
a: -23.250000
a: -22.500000
a: -21.750000
a: -21.000000
a: -20.250000
a: -19.500000
a: -18.750000
a: -18.000000
a: -17.250000
a: -16.500000
a: -15.750000
a: -15.000000
a: -14.250000
a: -13.500000
a: -12.750000
a: -12.000000
a: -11.250000
a: -10.500000
a: -9.750000
a: -9.000000
a: -8.250000
a: -7.500000
a: -6.750000
a: -6.000000
a: -5.250000
a: -4.500000
a: -3.750000
a: -3.000000
a: -2.250000
a: -1.500000
a: -0.750000
a: 0.000000
a: 0.750000
a: 1.500000
a: 2.250000
a: 3.000000
a: 3.750000
a: 4.500000
a: 5.250000
a: 6.000000
a: 6.750000
a: 7.500000
a: 8.250000
a: 9.000000
a: 9.750000
a: 10.500000
a: 11.250000
a: 12.000000
a: 12.750000
a: 13.500000
a: 14.250000
a: 15.000000
a: 15.750000
a: 16.500000
a: 17.250000
a: 18.000000
a: 18.750000
a: 19.500000
a: 20.250000
a: 21.000000
a: 21.750000
a: 22.500000
a: 23.250000
a: 24.000000
a: 24.750000
a: 25.500000
a: 26.250000
a: 27.000000
a: 27.750000
a: 28.500000
a: 29.250000
